student,question,answer
0,18,1
0,8,0
0,14,0
0,2,0
0,11,0
0,4,1
0,13,1
0,6,0
0,3,0
0,0,1
0,19,1
0,17,0
0,9,0
0,16,0
0,10,0
0,5,0
0,7,1
0,1,0
0,12,0
0,15,1
1,2,0
1,12,0
1,1,0
1,10,0
1,6,0
1,13,1
1,8,0
1,16,0
1,17,0
1,18,1
1,5,0
1,15,1
1,0,0
1,3,0
1,11,0
1,9,0
1,14,0
1,4,0
1,7,0
1,19,1
2,14,1
2,3,0
2,12,0
2,17,1
2,19,1
2,7,1
2,11,0
2,0,1
2,5,0
2,8,0
2,15,1
2,6,0
2,4,1
2,10,0
2,13,1
2,16,0
2,18,1
2,1,0
2,9,0
2,2,0
3,6,0
3,16,0
3,8,0
3,1,0
3,5,0
3,2,0
3,19,1
3,13,1
3,0,1
3,18,1
3,4,1
3,11,0
3,17,1
3,9,0
3,3,0
3,7,1
3,14,1
3,10,0
3,12,0
3,15,1
4,12,0
4,5,0
4,18,1
4,8,0
4,19,1
4,2,0
4,4,1
4,9,0
4,1,0
4,11,0
4,16,0
4,15,1
4,7,1
4,6,0
4,3,0
4,17,1
4,0,1
4,14,1
4,13,1
4,10,0
5,14,0
5,13,1
5,18,1
5,0,0
5,7,1
5,5,0
5,12,0
5,15,1
5,3,0
5,2,0
5,8,0
5,4,0
5,6,0
5,11,0
5,9,0
5,19,1
5,16,0
5,10,0
5,1,0
5,17,0
6,5,0
6,16,0
6,1,0
6,0,0
6,9,0
6,8,0
6,15,1
6,3,0
6,19,1
6,13,1
6,2,0
6,10,0
6,12,0
6,6,0
6,11,0
6,7,0
6,14,0
6,4,0
6,17,0
6,18,1
7,5,0
7,3,0
7,12,0
7,18,1
7,11,0
7,7,1
7,1,0
7,9,0
7,15,1
7,14,0
7,8,0
7,16,0
7,10,0
7,13,1
7,2,0
7,6,0
7,0,0
7,4,0
7,17,0
7,19,1
8,15,1
8,16,0
8,2,1
8,5,1
8,7,1
8,6,0
8,19,1
8,9,1
8,13,1
8,11,0
8,3,0
8,0,1
8,18,1
8,12,1
8,17,1
8,10,1
8,14,1
8,8,0
8,4,1
8,1,0
9,10,0
9,8,0
9,11,0
9,5,0
9,3,0
9,6,0
9,12,0
9,16,0
9,0,1
9,15,1
9,7,1
9,9,0
9,2,0
9,1,0
9,13,1
9,4,1
9,19,1
9,14,0
9,18,1
9,17,0
10,15,1
10,10,0
10,0,0
10,8,0
10,1,0
10,14,0
10,3,0
10,16,0
10,6,0
10,17,0
10,12,0
10,11,0
10,4,0
10,18,1
10,5,0
10,13,1
10,19,1
10,2,0
10,9,0
10,7,1
11,19,1
11,17,0
11,14,0
11,7,1
11,13,1
11,3,0
11,4,0
11,6,0
11,11,0
11,15,1
11,2,0
11,9,0
11,1,0
11,5,0
11,12,0
11,10,0
11,0,0
11,16,0
11,18,1
11,8,0
12,13,1
12,7,1
12,1,0
12,19,1
12,10,1
12,0,1
12,17,1
12,18,1
12,12,1
12,8,0
12,16,0
12,15,1
12,6,0
12,14,1
12,4,1
12,11,0
12,2,1
12,3,1
12,9,1
12,5,1
13,5,1
13,17,1
13,9,0
13,0,1
13,16,0
13,8,0
13,4,1
13,6,0
13,11,0
13,14,1
13,13,1
13,1,0
13,15,1
13,7,1
13,10,1
13,2,0
13,19,1
13,3,0
13,18,1
13,12,0
14,15,1
14,16,0
14,12,1
14,13,1
14,3,1
14,19,1
14,6,0
14,5,1
14,2,1
14,17,1
14,4,1
14,18,1
14,8,0
14,11,0
14,9,1
14,0,1
14,1,0
14,10,1
14,7,1
14,14,1
15,9,1
15,4,1
15,12,1
15,15,1
15,8,0
15,16,0
15,13,1
15,5,1
15,7,1
15,6,0
15,14,1
15,11,0
15,18,1
15,17,1
15,19,1
15,2,1
15,1,0
15,0,1
15,10,1
15,3,0
16,2,0
16,14,0
16,17,0
16,9,0
16,0,0
16,13,0
16,11,0
16,18,1
16,3,0
16,10,0
16,12,0
16,8,0
16,7,0
16,5,0
16,6,0
16,16,0
16,15,0
16,4,0
16,1,0
16,19,1
17,16,0
17,13,1
17,9,0
17,4,1
17,8,0
17,1,0
17,17,1
17,7,1
17,15,1
17,12,0
17,5,1
17,18,1
17,2,0
17,11,0
17,6,0
17,14,1
17,10,1
17,0,1
17,3,0
17,19,1
18,10,1
18,1,0
18,7,1
18,15,1
18,19,1
18,2,1
18,12,1
18,13,1
18,5,1
18,14,1
18,17,1
18,6,0
18,18,1
18,3,0
18,8,0
18,16,0
18,0,1
18,9,1
18,11,0
18,4,1
19,7,1
19,1,0
19,0,1
19,10,1
19,12,1
19,9,1
19,14,1
19,13,1
19,15,1
19,17,1
19,18,1
19,8,0
19,3,0
19,2,1
19,19,1
19,11,0
19,16,0
19,4,1
19,6,0
19,5,1
20,15,1
20,7,1
20,9,1
20,1,0
20,4,1
20,10,1
20,19,1
20,18,1
20,13,1
20,5,1
20,6,0
20,8,0
20,3,0
20,0,1
20,14,1
20,11,0
20,12,1
20,2,1
20,16,0
20,17,1
21,16,0
21,11,0
21,6,0
21,14,1
21,13,1
21,9,0
21,0,1
21,8,0
21,4,1
21,15,1
21,17,1
21,7,1
21,10,0
21,2,0
21,3,0
21,1,0
21,12,0
21,18,1
21,19,1
21,5,0
22,18,1
22,7,0
22,14,0
22,10,0
22,19,1
22,6,0
22,13,1
22,16,0
22,17,0
22,2,0
22,3,0
22,8,0
22,4,0
22,12,0
22,0,0
22,1,0
22,5,0
22,11,0
22,9,0
22,15,1
23,6,0
23,18,1
23,3,0
23,0,0
23,19,0
23,8,0
23,11,0
23,13,0
23,10,0
23,5,0
23,7,0
23,1,0
23,16,0
23,2,0
23,9,0
23,15,0
23,14,0
23,4,0
23,12,0
23,17,0
24,17,1
24,3,1
24,1,0
24,9,1
24,14,1
24,13,1
24,2,1
24,0,1
24,10,1
24,7,1
24,6,0
24,19,1
24,8,0
24,16,0
24,5,1
24,4,1
24,12,1
24,11,0
24,18,1
24,15,1
25,8,0
25,14,1
25,16,1
25,17,1
25,12,1
25,15,1
25,19,1
25,9,1
25,4,1
25,2,1
25,18,1
25,0,1
25,3,1
25,7,1
25,1,0
25,11,1
25,6,1
25,13,1
25,5,1
25,10,1
26,8,0
26,6,0
26,3,0
26,19,1
26,4,1
26,2,1
26,5,1
26,9,1
26,16,0
26,14,1
26,10,1
26,15,1
26,1,0
26,13,1
26,11,0
26,0,1
26,12,1
26,7,1
26,18,1
26,17,1
27,12,1
27,11,0
27,6,0
27,1,0
27,16,0
27,0,1
27,8,0
27,5,1
27,4,1
27,2,1
27,19,1
27,10,1
27,7,1
27,17,1
27,3,0
27,18,1
27,9,1
27,14,1
27,13,1
27,15,1
28,1,0
28,19,1
28,17,1
28,0,1
28,5,1
28,18,1
28,15,1
28,14,1
28,6,0
28,11,0
28,8,0
28,4,1
28,10,1
28,3,0
28,7,1
28,13,1
28,2,1
28,16,0
28,9,1
28,12,1
29,14,1
29,19,1
29,0,1
29,8,0
29,13,1
29,1,0
29,5,1
29,2,1
29,11,0
29,12,1
29,4,1
29,10,1
29,9,1
29,3,1
29,6,0
29,18,1
29,15,1
29,16,0
29,17,1
29,7,1
30,14,1
30,4,1
30,19,1
30,13,1
30,16,1
30,7,1
30,10,1
30,0,1
30,9,1
30,11,1
30,15,1
30,12,1
30,6,1
30,1,1
30,5,1
30,3,1
30,17,1
30,18,1
30,8,0
30,2,1
31,2,0
31,12,0
31,15,1
31,8,0
31,5,0
31,3,0
31,9,0
31,14,0
31,18,1
31,1,0
31,10,0
31,19,1
31,6,0
31,0,0
31,11,0
31,17,0
31,13,1
31,4,0
31,16,0
31,7,1
32,7,1
32,14,1
32,12,1
32,15,1
32,6,0
32,9,1
32,0,1
32,8,0
32,2,1
32,19,1
32,11,0
32,16,0
32,18,1
32,3,0
32,4,1
32,17,1
32,1,0
32,5,1
32,13,1
32,10,1
33,0,0
33,12,0
33,18,1
33,3,0
33,15,1
33,19,1
33,6,0
33,8,0
33,9,0
33,11,0
33,5,0
33,17,0
33,1,0
33,14,0
33,16,0
33,2,0
33,10,0
33,4,0
33,7,1
33,13,1
34,18,1
34,17,1
34,6,0
34,10,1
34,3,0
34,9,1
34,11,0
34,16,0
34,4,1
34,14,1
34,13,1
34,19,1
34,7,1
34,15,1
34,12,1
34,2,1
34,8,0
34,0,1
34,5,1
34,1,0
35,2,0
35,4,1
35,10,0
35,0,1
35,3,0
35,13,1
35,18,1
35,9,0
35,7,1
35,14,1
35,12,0
35,6,0
35,8,0
35,1,0
35,17,1
35,16,0
35,5,0
35,15,1
35,11,0
35,19,1
36,11,1
36,4,1
36,16,1
36,15,1
36,19,1
36,12,1
36,8,0
36,3,1
36,2,1
36,18,1
36,9,1
36,1,1
36,7,1
36,6,1
36,10,1
36,0,1
36,13,1
36,5,1
36,17,1
36,14,1
37,13,1
37,18,1
37,8,0
37,17,1
37,6,0
37,1,0
37,16,0
37,3,0
37,4,1
37,11,0
37,19,1
37,5,1
37,9,0
37,0,1
37,12,1
37,2,1
37,15,1
37,10,1
37,7,1
37,14,1
38,18,1
38,14,0
38,7,0
38,2,0
38,19,1
38,1,0
38,8,0
38,16,0
38,13,0
38,0,0
38,6,0
38,5,0
38,10,0
38,9,0
38,4,0
38,11,0
38,17,0
38,15,0
38,12,0
38,3,0
39,6,0
39,14,1
39,2,0
39,7,1
39,17,1
39,15,1
39,4,1
39,11,0
39,18,1
39,0,1
39,19,1
39,3,0
39,5,0
39,12,0
39,9,0
39,1,0
39,8,0
39,13,1
39,16,0
39,10,0
40,6,0
40,5,1
40,14,1
40,2,1
40,4,1
40,1,0
40,18,1
40,8,0
40,13,1
40,3,0
40,0,1
40,17,1
40,15,1
40,19,1
40,9,1
40,7,1
40,10,1
40,11,0
40,16,0
40,12,1
41,15,1
41,17,1
41,14,1
41,19,1
41,16,0
41,2,0
41,0,1
41,12,0
41,8,0
41,13,1
41,3,0
41,4,1
41,6,0
41,10,1
41,7,1
41,5,1
41,11,0
41,18,1
41,9,0
41,1,0
42,15,1
42,12,1
42,17,1
42,13,1
42,3,1
42,19,1
42,6,1
42,5,1
42,10,1
42,0,1
42,4,1
42,8,0
42,7,1
42,11,0
42,1,0
42,14,1
42,2,1
42,16,1
42,9,1
42,18,1
43,17,0
43,1,0
43,4,0
43,19,1
43,11,0
43,14,0
43,5,0
43,10,0
43,7,0
43,9,0
43,0,0
43,16,0
43,3,0
43,13,0
43,15,0
43,12,0
43,8,0
43,18,1
43,2,0
43,6,0
44,15,1
44,2,1
44,13,1
44,10,1
44,1,0
44,3,0
44,19,1
44,18,1
44,0,1
44,16,0
44,11,0
44,17,1
44,9,1
44,14,1
44,4,1
44,12,1
44,7,1
44,6,0
44,8,0
44,5,1
45,18,1
45,16,0
45,4,1
45,19,1
45,6,0
45,0,1
45,13,1
45,15,1
45,14,1
45,17,1
45,8,0
45,10,1
45,2,1
45,1,0
45,7,1
45,11,0
45,12,0
45,9,0
45,5,1
45,3,0
46,5,0
46,7,1
46,12,0
46,10,0
46,9,0
46,6,0
46,15,1
46,19,1
46,4,0
46,16,0
46,2,0
46,18,1
46,0,0
46,13,1
46,11,0
46,17,0
46,8,0
46,14,0
46,3,0
46,1,0
47,19,1
47,15,1
47,9,0
47,12,0
47,17,0
47,16,0
47,8,0
47,1,0
47,2,0
47,18,1
47,4,1
47,5,0
47,7,1
47,14,0
47,6,0
47,10,0
47,13,1
47,0,1
47,3,0
47,11,0
48,16,0
48,7,1
48,17,0
48,0,1
48,4,1
48,11,0
48,8,0
48,5,0
48,3,0
48,10,0
48,14,0
48,12,0
48,19,1
48,6,0
48,9,0
48,1,0
48,15,1
48,2,0
48,13,1
48,18,1
49,19,1
49,9,0
49,12,0
49,14,1
49,16,0
49,4,1
49,0,1
49,3,0
49,13,1
49,10,1
49,6,0
49,18,1
49,15,1
49,17,1
49,7,1
49,8,0
49,2,0
49,5,0
49,11,0
49,1,0
50,4,0
50,12,0
50,9,0
50,15,0
50,16,0
50,3,0
50,17,0
50,7,0
50,19,0
50,8,0
50,11,0
50,2,0
50,14,0
50,5,0
50,1,0
50,0,0
50,6,0
50,18,1
50,13,0
50,10,0
51,12,0
51,16,0
51,13,1
51,1,0
51,8,0
51,5,1
51,3,0
51,6,0
51,4,1
51,10,1
51,11,0
51,0,1
51,9,0
51,7,1
51,19,1
51,18,1
51,14,1
51,2,0
51,15,1
51,17,1
52,12,0
52,14,0
52,19,1
52,13,0
52,18,1
52,0,0
52,8,0
52,9,0
52,16,0
52,15,0
52,17,0
52,1,0
52,11,0
52,2,0
52,6,0
52,7,0
52,4,0
52,3,0
52,10,0
52,5,0
53,9,0
53,2,0
53,0,1
53,3,0
53,16,0
53,1,0
53,13,1
53,11,0
53,6,0
53,4,1
53,14,1
53,17,1
53,10,0
53,18,1
53,7,1
53,15,1
53,5,0
53,8,0
53,19,1
53,12,0
54,11,0
54,6,0
54,18,1
54,14,0
54,2,0
54,10,0
54,16,0
54,3,0
54,7,0
54,9,0
54,8,0
54,13,0
54,0,0
54,1,0
54,17,0
54,15,0
54,4,0
54,12,0
54,19,0
54,5,0
55,11,1
55,1,0
55,9,1
55,16,1
55,7,1
55,8,0
55,2,1
55,14,1
55,18,1
55,10,1
55,3,1
55,6,1
55,19,1
55,17,1
55,15,1
55,0,1
55,5,1
55,4,1
55,12,1
55,13,1
56,17,1
56,8,0
56,3,0
56,14,1
56,19,1
56,2,1
56,7,1
56,11,0
56,6,0
56,12,1
56,1,0
56,4,1
56,13,1
56,0,1
56,16,0
56,10,1
56,18,1
56,5,1
56,9,1
56,15,1
57,19,1
57,17,1
57,8,0
57,3,0
57,5,1
57,18,1
57,10,1
57,15,1
57,6,0
57,11,0
57,13,1
57,12,1
57,2,1
57,14,1
57,4,1
57,9,1
57,0,1
57,16,0
57,1,0
57,7,1
58,17,1
58,5,1
58,13,1
58,2,1
58,15,1
58,6,1
58,7,1
58,14,1
58,16,1
58,4,1
58,10,1
58,18,1
58,1,0
58,9,1
58,19,1
58,12,1
58,0,1
58,11,0
58,8,0
58,3,1
59,15,1
59,3,1
59,18,1
59,11,0
59,7,1
59,1,0
59,17,1
59,19,1
59,0,1
59,14,1
59,4,1
59,8,0
59,12,1
59,6,0
59,2,1
59,16,0
59,13,1
59,5,1
59,9,1
59,10,1
60,5,1
60,4,1
60,1,0
60,18,1
60,3,1
60,15,1
60,16,1
60,11,1
60,14,1
60,13,1
60,17,1
60,19,1
60,8,0
60,0,1
60,6,1
60,10,1
60,9,1
60,2,1
60,12,1
60,7,1
61,12,1
61,0,1
61,14,1
61,9,1
61,19,1
61,3,1
61,15,1
61,4,1
61,16,0
61,6,0
61,2,1
61,18,1
61,11,0
61,7,1
61,1,0
61,13,1
61,5,1
61,17,1
61,8,0
61,10,1
62,0,1
62,14,0
62,8,0
62,16,0
62,6,0
62,9,0
62,13,1
62,3,0
62,2,0
62,11,0
62,4,1
62,15,1
62,10,0
62,12,0
62,7,1
62,17,0
62,19,1
62,5,0
62,1,0
62,18,1
63,6,0
63,17,0
63,18,1
63,5,0
63,1,0
63,3,0
63,4,0
63,10,0
63,2,0
63,16,0
63,14,0
63,19,1
63,0,0
63,15,1
63,13,1
63,8,0
63,12,0
63,9,0
63,11,0
63,7,1
64,8,0
64,9,1
64,3,1
64,1,1
64,12,1
64,19,1
64,18,1
64,10,1
64,7,1
64,16,1
64,11,1
64,0,1
64,13,1
64,5,1
64,2,1
64,17,1
64,15,1
64,6,1
64,14,1
64,4,1
65,17,0
65,16,0
65,8,0
65,7,1
65,9,0
65,3,0
65,10,0
65,13,1
65,18,1
65,19,1
65,1,0
65,14,0
65,0,1
65,4,1
65,6,0
65,15,1
65,5,0
65,2,0
65,12,0
65,11,0
66,11,1
66,18,1
66,17,1
66,8,0
66,2,1
66,0,1
66,19,1
66,5,1
66,16,1
66,10,1
66,7,1
66,15,1
66,3,1
66,6,1
66,4,1
66,1,0
66,13,1
66,14,1
66,12,1
66,9,1
67,6,1
67,5,1
67,15,1
67,13,1
67,9,1
67,3,1
67,0,1
67,12,1
67,7,1
67,2,1
67,8,0
67,11,1
67,10,1
67,16,1
67,4,1
67,1,0
67,14,1
67,18,1
67,17,1
67,19,1
68,14,1
68,19,1
68,16,0
68,12,0
68,8,0
68,17,1
68,1,0
68,18,1
68,10,1
68,7,1
68,15,1
68,13,1
68,5,0
68,4,1
68,6,0
68,2,0
68,0,1
68,3,0
68,9,0
68,11,0
69,2,0
69,16,0
69,6,0
69,8,0
69,3,0
69,4,1
69,15,1
69,14,1
69,9,0
69,12,0
69,1,0
69,7,1
69,11,0
69,19,1
69,10,0
69,17,1
69,5,0
69,0,1
69,18,1
69,13,1
70,15,0
70,2,0
70,13,1
70,16,0
70,14,0
70,5,0
70,12,0
70,8,0
70,1,0
70,10,0
70,0,0
70,7,0
70,9,0
70,11,0
70,3,0
70,19,1
70,18,1
70,17,0
70,4,0
70,6,0
71,3,0
71,1,0
71,9,0
71,15,0
71,19,1
71,6,0
71,18,1
71,7,0
71,2,0
71,16,0
71,10,0
71,4,0
71,12,0
71,0,0
71,8,0
71,14,0
71,11,0
71,13,0
71,5,0
71,17,0
72,17,1
72,13,1
72,19,1
72,0,1
72,5,1
72,3,1
72,9,1
72,14,1
72,16,1
72,1,0
72,15,1
72,10,1
72,6,1
72,8,0
72,4,1
72,18,1
72,2,1
72,12,1
72,7,1
72,11,1
73,18,1
73,14,0
73,5,0
73,6,0
73,3,0
73,0,0
73,4,0
73,7,0
73,17,0
73,11,0
73,1,0
73,9,0
73,8,0
73,16,0
73,15,1
73,10,0
73,12,0
73,19,1
73,13,1
73,2,0
74,9,0
74,5,0
74,18,1
74,19,1
74,7,1
74,8,0
74,4,1
74,6,0
74,0,1
74,14,1
74,3,0
74,17,1
74,10,0
74,11,0
74,12,0
74,13,1
74,15,1
74,16,0
74,1,0
74,2,0
75,18,1
75,7,1
75,6,0
75,9,0
75,10,0
75,3,0
75,1,0
75,12,0
75,2,0
75,14,0
75,17,0
75,15,1
75,11,0
75,19,1
75,13,1
75,5,0
75,8,0
75,4,0
75,0,0
75,16,0
76,19,1
76,8,0
76,4,1
76,5,0
76,14,1
76,9,0
76,1,0
76,0,1
76,16,0
76,15,1
76,7,1
76,3,0
76,18,1
76,12,0
76,2,0
76,11,0
76,6,0
76,10,0
76,17,1
76,13,1
77,2,1
77,3,0
77,19,1
77,5,1
77,15,1
77,1,0
77,14,1
77,6,0
77,4,1
77,13,1
77,18,1
77,16,0
77,10,1
77,8,0
77,12,1
77,9,0
77,17,1
77,7,1
77,0,1
77,11,0
78,15,1
78,19,1
78,10,1
78,5,1
78,7,1
78,16,0
78,12,1
78,1,0
78,14,1
78,8,0
78,6,0
78,9,1
78,0,1
78,13,1
78,17,1
78,3,0
78,4,1
78,18,1
78,2,1
78,11,0
79,2,0
79,3,0
79,18,1
79,5,0
79,0,0
79,12,0
79,11,0
79,13,1
79,15,1
79,4,0
79,9,0
79,19,1
79,6,0
79,1,0
79,10,0
79,8,0
79,17,0
79,7,1
79,14,0
79,16,0
80,4,0
80,5,0
80,1,0
80,17,0
80,7,0
80,12,0
80,2,0
80,3,0
80,0,0
80,10,0
80,14,0
80,8,0
80,18,1
80,11,0
80,19,1
80,16,0
80,15,1
80,6,0
80,9,0
80,13,1
81,3,1
81,17,1
81,19,1
81,14,1
81,11,1
81,10,1
81,18,1
81,12,1
81,7,1
81,5,1
81,2,1
81,9,1
81,16,1
81,1,0
81,8,0
81,0,1
81,6,1
81,15,1
81,4,1
81,13,1
82,6,0
82,16,0
82,10,0
82,12,0
82,2,0
82,1,0
82,15,1
82,11,0
82,9,0
82,14,0
82,13,1
82,8,0
82,4,0
82,0,1
82,19,1
82,5,0
82,18,1
82,17,0
82,7,1
82,3,0
83,3,1
83,2,1
83,7,1
83,10,1
83,8,0
83,18,1
83,4,1
83,11,1
83,1,0
83,19,1
83,0,1
83,6,1
83,14,1
83,13,1
83,12,1
83,15,1
83,9,1
83,16,1
83,5,1
83,17,1
84,11,0
84,14,1
84,10,0
84,6,0
84,18,1
84,0,1
84,9,0
84,1,0
84,5,0
84,12,0
84,2,0
84,3,0
84,16,0
84,17,1
84,15,1
84,13,1
84,19,1
84,8,0
84,7,1
84,4,1
85,7,1
85,6,1
85,9,1
85,2,1
85,13,1
85,3,1
85,12,1
85,15,1
85,5,1
85,18,1
85,11,1
85,14,1
85,8,0
85,19,1
85,17,1
85,16,1
85,0,1
85,4,1
85,10,1
85,1,0
86,3,0
86,18,1
86,14,0
86,11,0
86,7,0
86,10,0
86,13,0
86,0,0
86,12,0
86,5,0
86,17,0
86,15,0
86,9,0
86,16,0
86,8,0
86,19,1
86,4,0
86,6,0
86,1,0
86,2,0
87,17,0
87,13,1
87,14,0
87,7,1
87,0,1
87,16,0
87,12,0
87,19,1
87,4,1
87,15,1
87,10,0
87,18,1
87,8,0
87,2,0
87,9,0
87,5,0
87,11,0
87,6,0
87,1,0
87,3,0
88,15,1
88,2,0
88,14,1
88,11,0
88,3,0
88,1,0
88,0,1
88,18,1
88,10,0
88,4,1
88,16,0
88,19,1
88,8,0
88,12,0
88,13,1
88,6,0
88,17,1
88,9,0
88,5,0
88,7,1
89,13,1
89,19,1
89,2,1
89,6,0
89,14,1
89,11,0
89,15,1
89,5,1
89,7,1
89,8,0
89,4,1
89,9,1
89,1,0
89,0,1
89,16,0
89,12,1
89,10,1
89,17,1
89,18,1
89,3,1
90,7,1
90,12,0
90,19,1
90,15,1
90,0,1
90,16,0
90,2,0
90,17,1
90,3,0
90,13,1
90,1,0
90,14,1
90,10,0
90,6,0
90,9,0
90,18,1
90,4,1
90,8,0
90,11,0
90,5,0
91,5,0
91,19,1
91,14,0
91,4,0
91,1,0
91,17,0
91,15,1
91,13,1
91,2,0
91,12,0
91,8,0
91,10,0
91,7,1
91,0,0
91,3,0
91,16,0
91,6,0
91,11,0
91,9,0
91,18,1
92,14,1
92,13,1
92,4,1
92,18,1
92,3,1
92,6,1
92,9,1
92,8,0
92,0,1
92,1,0
92,7,1
92,11,0
92,2,1
92,16,1
92,10,1
92,12,1
92,5,1
92,17,1
92,19,1
92,15,1
93,9,1
93,5,1
93,8,0
93,14,1
93,15,1
93,2,1
93,0,1
93,18,1
93,10,1
93,19,1
93,11,0
93,6,0
93,12,1
93,4,1
93,7,1
93,3,1
93,17,1
93,1,0
93,16,0
93,13,1
94,14,1
94,9,1
94,11,0
94,12,1
94,19,1
94,1,0
94,15,1
94,18,1
94,3,1
94,8,0
94,10,1
94,17,1
94,2,1
94,5,1
94,16,0
94,0,1
94,7,1
94,13,1
94,4,1
94,6,0
95,3,1
95,7,1
95,15,1
95,1,0
95,12,1
95,11,0
95,13,1
95,18,1
95,14,1
95,9,1
95,2,1
95,4,1
95,5,1
95,0,1
95,19,1
95,17,1
95,6,1
95,8,0
95,10,1
95,16,1
96,15,0
96,2,0
96,12,0
96,5,0
96,4,0
96,13,0
96,18,1
96,10,0
96,0,0
96,11,0
96,6,0
96,3,0
96,19,1
96,14,0
96,1,0
96,17,0
96,8,0
96,16,0
96,9,0
96,7,0
97,13,1
97,18,1
97,10,1
97,6,0
97,9,1
97,11,0
97,4,1
97,1,0
97,19,1
97,5,1
97,3,1
97,15,1
97,8,0
97,16,0
97,17,1
97,0,1
97,12,1
97,2,1
97,14,1
97,7,1
98,3,0
98,16,0
98,10,0
98,2,0
98,15,1
98,8,0
98,7,1
98,13,1
98,14,0
98,19,1
98,18,1
98,0,0
98,4,0
98,12,0
98,9,0
98,1,0
98,11,0
98,5,0
98,6,0
98,17,0
99,9,0
99,6,0
99,2,0
99,1,0
99,7,1
99,4,1
99,8,0
99,10,0
99,17,0
99,16,0
99,14,0
99,11,0
99,13,1
99,19,1
99,3,0
99,0,1
99,15,1
99,12,0
99,18,1
99,5,0
